Module1
…
Quesiton 2

Lets dig in on the state with the 3rd most companies in the data set. Imagine you work for the state and are interested in how many people are employed by companies in different industries. Create a plot that shows the average and/or median employment by industry for companies in this state (only use cases with full data, use Rs complete.cases() function.) In addition to this, your graph should show how variable the ranges are, and you should deal with outliers.

# This sounds like a boxplot/violin plot given an average/median employment by industry with a variable range for each state
# this would also show outliers unless removed
# However, the data is not averagable for the industry in the state
# Unless you did something like this 
inc %>% 
  filter(State == "NY") %>% 
  group_by(Industry) %>% 
  summarise(IndMed = median(Employees)) # Calc median employment by industry in this state

## # A tibble: 25 x 2
##    Industry                     IndMed
##    <chr>                         <dbl>
##  1 Advertising & Marketing        38  
##  2 Business Products & Services   70.5
##  3 Computer Hardware              44  
##  4 Construction                   24.5
##  5 Consumer Products & Services   25  
##  6 Education                      50.5
##  7 Energy                        120  
##  8 Engineering                    54.5
##  9 Environmental Services        155  
## 10 Financial Services             81  
## # ... with 15 more rows
…
