WGA606
…
Full time earnings of males and females in the 50 states and District of Columbia have a median of $39,570 and $26,936 for those 16 and older, $51,477 and $39,967 for those employed full-time with earnings in the past 12 months, along with $45,873 and $39,967 for those age 25 and older. Taking the difference of these medians and proportioning them create a new variable called the observed difference and proportion of median female earnings to male earnings. In the table these are abbreviated to obs_dif and Px where x can take the place of the variable full-time (ft), the number 16 for those with earnings aged 16 and older, or 25 for those with earnings that are age 25 and older in these calculations.

earnings[,c(1,18:23)]

## # A tibble: 51 x 7
##    State                dif.ft dif.16 dif.25   Pft   P16   P25
##    <chr>                 <dbl>  <dbl>  <dbl> <dbl> <dbl> <dbl>
##  1 Alabama               12663  11936  13606 0.738 0.674 0.678
##  2 Alaska                11581  13266  15994 0.809 0.706 0.702
##  3 Arizona                7617   8336   9598 0.840 0.767 0.770
##  4 Arkansas               7894   8730  10798 0.813 0.740 0.724
##  5 California             6554  10268  11711 0.879 0.745 0.750
##  6 Colorado               9419  11259  14177 0.827 0.732 0.717
##  7 Connecticut           11848  15603  16583 0.819 0.687 0.712
##  8 Delaware               8081   9679  10704 0.849 0.764 0.774
##  9 District of Columbia   9806   9409  10295 0.873 0.840 0.848
## 10 Florida                6032   6916   7952 0.861 0.794 0.792
## # ... with 41 more rows
…
